<?xml version="1.0" encoding="utf-8"?>
<!-- Generator: Adobe Illustrator 21.0.0, SVG Export Plug-In . SVG Version: 6.00 Build 0)  -->
<svg version="1.1" id="Layer_1" xmlns="http://www.w3.org/2000/svg" xmlns:xlink="http://www.w3.org/1999/xlink" x="0px" y="0px"
	 viewBox="0 0 2000 2000" style="enable-background:new 0 0 2000 2000;" xml:space="preserve">
<style type="text/css">
	.st0{fill:none;}
	.st1{fill:none;stroke:#FFFFFF;stroke-width:60;stroke-miterlimit:10;}
	.st2{fill:#FFFFFF;}
</style>
<path class="st0" d="M0,0"/>
<g>
	<path class="st1" d="M1956.7,667c-147.5-331.7-494.3-564.6-898.6-564.6c-538.2,0-974.3,412.4-974.3,921.1S520,1944.7,1058,1944.7
		c404.3,0,751.2-232.9,898.6-564.6"/>
	<path class="st2" d="M1139.3,996.8c-15.6,0-28.3-12-28.3-26.7c0-14.7,12.7-26.7,28.3-26.7c39.1,0,74.5-15,100.2-39.1l-0.1-0.1
		c25.6-24.2,41.5-57.6,41.5-94.5c0-37-15.8-70.5-41.4-94.7l-0.1,0.1c-25.6-24.3-61.1-39.2-100.1-39.2H799.7
		c-15.6,0-28.3-12-28.3-26.7c0-14.7,12.7-26.7,28.3-26.7h339.7c54.7,0,104.3,21,140.1,54.9l-0.1,0.1l0.1,0.1
		c35.8,33.9,58,80.8,58,132.5c0,51.7-22.2,98.5-58,132.5l-0.1-0.1l-0.1,0.1C1243.5,975.9,1193.9,996.8,1139.3,996.8z"/>
	<path class="st2" d="M1139.5,996.8c-15.6,0-28.3-12-28.3-26.7c0-14.7,12.7-26.7,28.3-26.7c70.3,0,134.2,27,180.2,70.5l1.6,1.7
		c45.2,43.5,73,103,73,168.6c0,66.4-28.6,126.6-74.7,170.2l-0.1,0.1l0.1,0.1c-46,43.5-109.8,70.6-180.1,70.6H799.8
		c-15.6,0-28.3-12-28.3-26.7c0-14.7,12.7-26.7,28.3-26.7h339.8c54.7,0,104.2-21,140.1-54.9l0.1,0.1c35.8-33.9,58-80.9,58-132.6
		c0-51.1-21.5-97.4-56.4-131l-1.6-1.4C1243.7,1017.8,1194.1,996.8,1139.5,996.8z"/>
	<path class="st2" d="M1026.3,996.8c-15.6,0-28.3-12-28.3-26.7c0-14.7,12.7-26.7,28.3-26.7h113.2c15.6,0,28.3,12,28.3,26.7
		s-12.7,26.7-28.3,26.7H1026.3z"/>
	<path class="st2" d="M884.6,648.9c0-14.7,12.7-26.7,28.3-26.7c15.6,0,28.3,12,28.3,26.7v749.3c0,14.7-12.7,26.7-28.3,26.7
		c-15.6,0-28.3-12-28.3-26.7V648.9L884.6,648.9z"/>
	<path class="st2" d="M941.2,488.4c0-14.7,12.7-26.7,28.3-26.7s28.3,12,28.3,26.7V649c0,14.7-12.8,26.7-28.3,26.7
		c-15.6,0-28.3-12-28.3-26.7V488.4z"/>
	<path class="st2" d="M941.2,1398.4c0-14.7,12.7-26.7,28.3-26.7s28.3,12,28.3,26.7V1559c0,14.7-12.8,26.7-28.3,26.7
		c-15.6,0-28.3-12-28.3-26.7V1398.4z"/>
	<path class="st2" d="M1111.1,488.4c0-14.7,12.7-26.7,28.3-26.7s28.3,12,28.3,26.7V649c0,14.7-12.7,26.7-28.3,26.7
		s-28.3-12-28.3-26.7V488.4z"/>
	<path class="st2" d="M1111.1,1398.4c0-14.7,12.7-26.7,28.3-26.7s28.3,12,28.3,26.7V1559c0,14.7-12.7,26.7-28.3,26.7
		s-28.3-12-28.3-26.7V1398.4z"/>
</g>
</svg>
