<?xml version="1.0" encoding="utf-8"?>
<!-- Generator: Adobe Illustrator 21.0.2, SVG Export Plug-In . SVG Version: 6.00 Build 0)  -->
<svg version="1.1" id="Layer_1" xmlns="http://www.w3.org/2000/svg" xmlns:xlink="http://www.w3.org/1999/xlink" x="0px" y="0px"
	 viewBox="0 0 2000 2000" style="enable-background:new 0 0 2000 2000;" xml:space="preserve">
<style type="text/css">
	.st0{fill:none;stroke:#000000;stroke-width:30;stroke-miterlimit:10;}
	.st1{fill:#7B0D00;stroke:#000000;stroke-width:30;stroke-miterlimit:10;}
	.st2{fill:none;stroke:#000000;stroke-width:10;stroke-miterlimit:10;}
</style>
<g id="Layer_2">
</g>
<ellipse cx="857" cy="1146" rx="15.1" ry="15"/>
<ellipse cx="892" cy="1248.2" rx="15" ry="14.9"/>
<ellipse cx="970" cy="1249.1" rx="15" ry="14.9"/>
<ellipse cx="1005" cy="1146" rx="15.1" ry="15"/>
<ellipse cx="1058.4" cy="814.2" rx="5" ry="5"/>
<g>
	<path class="st0" d="M892,1248.2v-191.6c0-27.5,0-72.5,0-100V800c0-27.5,21.8-55.4,48.5-62.1c0,0,264.1-65.8,262.6,168.2
		c0,0,1.4,177.1-303.1,100.6"/>
</g>
<g>
	<line class="st0" x1="970" y1="735.3" x2="970" y2="1249.1"/>
</g>
<line class="st1" x1="857" y1="1146" x2="1005" y2="1146"/>
<path class="st2" d="M1060.5,814.8c124,95,53.4,167.2,53.4,167.2c-125,12-87.3-188-87.3-188s207.3-9,138.3,164
	c0,0-18.8-123.8-107.5-144"/>
</svg>
